Music Genre Classification
…
This could be very intuitiveâ€“indeed sining about â€œmovesâ€and â€œrhythmâ€ may be associated with Electronic music, while most vulgar words like â€œbitchâ€ come with Hip-Hop.

After finding the most popular words, we focused on sentiment analysis of emotions in lyrics.

We decided to use library nrc for sentimens of fear, anger and joy.

# fear 

nrcfear <- get_sentiments("nrc") %>% filter(sentiment == "fear")
lyrics %>% inner_join(nrcfear) %>% count(word, sort=T)

## Joining, by = "word"

## # A tibble: 24,009 x 3
## # Groups:   song [8,694]
##    song                           word       n
##    <chr>                          <chr>  <int>
##  1 fever                          fever     83
##  2 fiyah-gun                      gun       59
##  3 don-t-worry-bout-it            worry     55
##  4 benz-friendz-whatchutola       bitch     51
##  5 da-day                         shoot     49
##  6 lonely-heart                   lonely    49
##  7 es-reiten-die-toten-so-schnell die       45
##  8 cruel-summer                   cruel     44
##  9 the-bitch-is-back              bitch     42
## 10 kill-the-dog-next-door         kill      41
## # ... with 23,999 more rows

# joy 

nrcjoy <- get_sentiments("nrc") %>% filter(sentiment == "joy")
lyrics %>% inner_join(nrcjoy) %>% count(word, sort=T)

## Joining, by = "word"

## # A tibble: 25,918 x 3
## # Groups:   song [9,587]
##    song                     word       n
##    <chr>                    <chr>  <int>
##  1 when-a-woman-loves-a-man love      74
##  2 loving-you-love-me       loving    71
##  3 in-the-name-of-love      love      68
##  4 our-love                 love      64
##  5 do-you-love-me           love      60
##  6 spotlight                love      56
##  7 breathing-your-love      love      52
##  8 deep-sea-diver           love      52
##  9 think-i-m-in-love        love      52
## 10 executive-decision-nas   money     49
## # ... with 25,908 more rows

# anger 

nrcanger <- get_sentiments("nrc") %>% filter(sentiment == "anger")
lyrics %>% inner_join(nrcanger) %>% count(word, sort=T)

## Joining, by = "word"

## # A tibble: 22,869 x 3
## # Groups:   song [8,377]
##    song                     word       n
##    <chr>                    <chr>  <int>
##  1 losing-you               losing    66
##  2 don-t-worry-bout-it      bout      60
##  3 fiyah-gun                gun       59
##  4 fly-shit-only            shit      59
##  5 benz-friendz-whatchutola bitch     51
##  6 da-day                   shoot     49
##  7 executive-decision-nas   money     49
##  8 lonely-heart             lonely    49
##  9 grind-pray               money     48
## 10 hot-stuff                hot       45
## # ... with 22,859 more rows
…
